-------------------------------------------------------------------------------
Test set: com.edurekademo.utilities.TestGenericComparator
-------------------------------------------------------------------------------
Tests run: 14, Failures: 0, Errors: 0, Skipped: 0, Time elapsed: 0.027 sec - in com.edurekademo.utilities.TestGenericComparator
